INDEX VERSION 1.131+D:\RepoExamen\.metadata\.plugins\org.eclipse.jdt.core
2831726757.index
2140604173.index
1064516417.index
2476351216.index
4097824964.index
810606466.index
3711409466.index
4293480959.index
4254922204.index
213493503.index
3624869368.index
1120994837.index
3984303030.index
4255041882.index
1812584091.index
2450870432.index
3475068565.index
1800490528.index
2628887609.index
1186829880.index
1719380765.index
1500294159.index
1096823094.index
3259301653.index
3459882301.index
2366943492.index
2387132194.index
741416789.index
2342314979.index
911398812.index
859750171.index
3857000839.index
3481751421.index
971378871.index
2098754363.index
3712853267.index
546102534.index
484444340.index
1716156291.index
3175577719.index
4125523286.index
1376121581.index
167067758.index
3499075252.index
408771512.index
2254571451.index
3619321883.index
42479586.index
2155685345.index
3020550759.index
3973763240.index
825324421.index
2774972818.index
1085007195.index
1745032645.index
1364138827.index
2212720339.index
23637019.index
2493053139.index
1301684271.index
1732309365.index
4086263615.index
3461466544.index
2056294448.index
2299022505.index
1754751023.index
4125363068.index
213636461.index
3069209473.index
370452570.index
592163148.index
3735438135.index
2769309012.index
353414409.index
1172606222.index
2896167281.index
2458036738.index
1558234620.index
2583671520.index
3257405619.index
532872329.index
632861294.index
53277403.index
1160558591.index
914189684.index
2757646800.index
2049299287.index
4026912008.index
1328766206.index
1369877697.index
248593922.index
244129734.index
3653794319.index
695969258.index
3818468497.index
786838410.index
2661038357.index
2340924241.index
2923218292.index
4016452018.index
3802890511.index
1265533536.index
1011511051.index
2002025543.index
2907180072.index
2830696786.index
3432280055.index
2055013746.index
325870332.index
2683318554.index
775428251.index
970550458.index
593970417.index
3929848548.index
61926496.index
4276758565.index
226247603.index
4217684269.index
4209448737.index
3883956307.index
3301232788.index
4028279752.index
2126560368.index
222011958.index
2450631623.index
3058208675.index
1220563153.index
3662682569.index
2274937761.index
1660105727.index
3859575398.index
2857033594.index
4215042963.index
2145539456.index
3452377613.index
3169400348.index
2777612265.index
840786001.index
784657441.index
1553800282.index
2548335465.index
3721671213.index
694221172.index
1976323324.index
2184721701.index
866915538.index
3361539135.index
2158205419.index
555507292.index
